^H:\APPLICATION DEVELOPMENT WORK FOLDER\APPLICATION_SECURITY_AUTHS_MAINTENANCE\APPLICATION_SECURITY_AUTHS_MAINTENANCE\FORM1.RESX|H:\APPLICATION DEVELOPMENT WORK FOLDER\APPLICATION_SECURITY_AUTHS_MAINTENANCE\APPLICATION_SECURITY_AUTHS_MAINTENANCE\MY PROJECT\RESOURCES.RESX
H:\APPLICATION DEVELOPMENT WORK FOLDER\APPLICATION_SECURITY_AUTHS_MAINTENANCE\APPLICATION_SECURITY_AUTHS_MAINTENANCE\OBJ\X86\RELEASE\APPLICATION_SECURITY_AUTHS_MAINTENANCE.FRMMAIN.RESOURCES
H:\APPLICATION DEVELOPMENT WORK FOLDER\APPLICATION_SECURITY_AUTHS_MAINTENANCE\APPLICATION_SECURITY_AUTHS_MAINTENANCE\OBJ\X86\RELEASE\APPLICATION_SECURITY_AUTHS_MAINTENANCE.RESOURCES.RESOURCES
^W:\DEPARTMENTS\INFORMATION TECHNOLOGY\APPLICATIONS\VS .NET APPLICATIONS\APPLICATION_SECURITY_AUTHS_MAINTENANCE\APPLICATION_SECURITY_AUTHS_MAINTENANCE\FORM1.RESX|W:\DEPARTMENTS\INFORMATION TECHNOLOGY\APPLICATIONS\VS .NET APPLICATIONS\APPLICATION_SECURITY_AUTHS_MAINTENANCE\APPLICATION_SECURITY_AUTHS_MAINTENANCE\MY PROJECT\RESOURCES.RESX
W:\DEPARTMENTS\INFORMATION TECHNOLOGY\APPLICATIONS\VS .NET APPLICATIONS\APPLICATION_SECURITY_AUTHS_MAINTENANCE\APPLICATION_SECURITY_AUTHS_MAINTENANCE\OBJ\X86\RELEASE\APPLICATION_SECURITY_AUTHS_MAINTENANCE.FRMMAIN.RESOURCES
W:\DEPARTMENTS\INFORMATION TECHNOLOGY\APPLICATIONS\VS .NET APPLICATIONS\APPLICATION_SECURITY_AUTHS_MAINTENANCE\APPLICATION_SECURITY_AUTHS_MAINTENANCE\OBJ\X86\RELEASE\APPLICATION_SECURITY_AUTHS_MAINTENANCE.RESOURCES.RESOURCES
^W:\DEPARTMENTS\INFORMATION TECHNOLOGY\APPLICATIONS\VS .NET APPLICATIONS\APPLICATION_SECURITY_AUTHS_MAINTENANCE_V20110505\APPLICATION_SECURITY_AUTHS_MAINTENANCE\FORM1.RESX|W:\DEPARTMENTS\INFORMATION TECHNOLOGY\APPLICATIONS\VS .NET APPLICATIONS\APPLICATION_SECURITY_AUTHS_MAINTENANCE_V20110505\APPLICATION_SECURITY_AUTHS_MAINTENANCE\MY PROJECT\RESOURCES.RESX
W:\DEPARTMENTS\INFORMATION TECHNOLOGY\APPLICATIONS\VS .NET APPLICATIONS\APPLICATION_SECURITY_AUTHS_MAINTENANCE_V20110505\APPLICATION_SECURITY_AUTHS_MAINTENANCE\OBJ\X86\RELEASE\APPLICATION_SECURITY_AUTHS_MAINTENANCE.FRMMAIN.RESOURCES
W:\DEPARTMENTS\INFORMATION TECHNOLOGY\APPLICATIONS\VS .NET APPLICATIONS\APPLICATION_SECURITY_AUTHS_MAINTENANCE_V20110505\APPLICATION_SECURITY_AUTHS_MAINTENANCE\OBJ\X86\RELEASE\APPLICATION_SECURITY_AUTHS_MAINTENANCE.RESOURCES.RESOURCES
